<svg width="682" height="150" viewBox="0 0 682 150" fill="none" xmlns="http://www.w3.org/2000/svg">
<path d="M297.25 71.1029C300.25 72.8349 300.25 77.1651 297.25 78.8971L202.75 133.457C199.75 135.189 196 133.024 196 129.56L196 20.4404C196 16.9763 199.75 14.8112 202.75 16.5433L297.25 71.1029Z" stroke="#006DEC" stroke-width="3"/>
<path d="M29.184 110.288C24.32 110.288 19.744 109.424 15.456 107.696C11.168 105.904 7.872 103.6 5.568 100.784L6.912 99.536C9.088 102.096 12.192 104.24 16.224 105.968C20.256 107.632 24.544 108.464 29.088 108.464C36.064 108.464 41.312 107.088 44.832 104.336C48.416 101.52 50.208 97.904 50.208 93.488C50.208 90.032 49.28 87.28 47.424 85.232C45.568 83.184 43.264 81.648 40.512 80.624C37.824 79.6 34.176 78.544 29.568 77.456C24.64 76.24 20.736 75.088 17.856 74C14.976 72.848 12.512 71.12 10.464 68.816C8.48 66.448 7.488 63.312 7.488 59.408C7.488 56.336 8.288 53.52 9.888 50.96C11.488 48.4 13.984 46.352 17.376 44.816C20.768 43.28 24.96 42.512 29.952 42.512C33.536 42.512 37.056 43.088 40.512 44.24C43.968 45.328 46.944 46.8 49.44 48.656L48.384 50.192C45.76 48.272 42.816 46.832 39.552 45.872C36.352 44.848 33.184 44.336 30.048 44.336C23.328 44.336 18.208 45.776 14.688 48.656C11.168 51.472 9.408 55.088 9.408 59.504C9.408 62.96 10.336 65.744 12.192 67.856C14.048 69.904 16.352 71.44 19.104 72.464C21.856 73.488 25.568 74.576 30.24 75.728C35.104 76.944 38.976 78.128 41.856 79.28C44.736 80.368 47.168 82.064 49.152 84.368C51.136 86.608 52.128 89.648 52.128 93.488C52.128 96.56 51.296 99.376 49.632 101.936C47.968 104.496 45.408 106.544 41.952 108.08C38.56 109.552 34.304 110.288 29.184 110.288ZM123.224 42.8V110H121.304V76.784H72.3443V110H70.4243V42.8H72.3443V74.96H121.304V42.8H123.224Z" fill="white"/>
<path d="M426.36 42.8L403.32 110H401.4L378.84 45.488L356.28 110H354.36L331.32 42.8H333.432L355.416 106.928L377.88 42.8H379.8L402.36 107.12L424.344 42.8H426.36ZM489.761 110L472.673 86.288C470.433 86.736 467.809 86.96 464.801 86.96H443.969V110H442.049V42.8H464.801C473.057 42.8 479.521 44.752 484.193 48.656C488.865 52.496 491.201 57.904 491.201 64.88C491.201 70.256 489.761 74.768 486.881 78.416C484.001 82 479.937 84.464 474.689 85.808L492.161 110H489.761ZM464.993 85.136C472.801 85.136 478.785 83.376 482.945 79.856C487.169 76.336 489.281 71.344 489.281 64.88C489.281 58.416 487.169 53.424 482.945 49.904C478.785 46.384 472.801 44.624 464.993 44.624H443.969V85.136H464.993ZM555.504 108.176V110H510.768V42.8H554.064V44.624H512.688V74.96H549.744V76.784H512.688V108.176H555.504ZM619.629 108.176V110H574.893V42.8H618.189V44.624H576.813V74.96H613.869V76.784H576.813V108.176H619.629ZM639.018 42.8H640.938V108.176H680.97V110H639.018V42.8Z" fill="white"/>
</svg>
